%YAML 1.1
%TAG !u! tag:unity3d.com,2011:
--- !u!114 &2765949028500620283
MonoBehaviour:
  m_ObjectHideFlags: 0
  m_CorrespondingSourceObject: {fileID: 0}
  m_PrefabInstance: {fileID: 0}
  m_PrefabAsset: {fileID: 0}
  m_GameObject: {fileID: 4283576748108830426}
  m_Enabled: 1
  m_EditorHideFlags: 0
  m_Script: {fileID: -146154839, guid: f70555f144d8491a825f0804e09c671c, type: 3}
  m_Name: 
  m_EditorClassIdentifier: 
--- !u!1 &2765949028586788325
GameObject:
  m_ObjectHideFlags: 0
  m_CorrespondingSourceObject: {fileID: 0}
  m_PrefabInstance: {fileID: 0}
  m_PrefabAsset: {fileID: 0}
  serializedVersion: 6
  m_Component:
  - component: {fileID: 2765949028586788324}
  - component: {fileID: 2765949028586788321}
  - component: {fileID: 2765949028586788326}
  - component: {fileID: 2765949028586788327}
  m_Layer: 0
  m_Name: ColorTint
  m_TagString: Untagged
  m_Icon: {fileID: 0}
  m_NavMeshLayer: 0
  m_StaticEditorFlags: 0
  m_IsActive: 1
--- !u!224 &2765949028586788324
RectTransform:
  m_ObjectHideFlags: 0
  m_CorrespondingSourceObject: {fileID: 0}
  m_PrefabInstance: {fileID: 0}
  m_PrefabAsset: {fileID: 0}
  m_GameObject: {fileID: 2765949028586788325}
  m_LocalRotation: {x: 0, y: 0, z: 0, w: 1}
  m_LocalPosition: {x: 0, y: 0, z: 0}
  m_LocalScale: {x: 1, y: 1, z: 1}
  m_Children: []
  m_Father: {fileID: 1725470780467581657}
  m_RootOrder: 0
  m_LocalEulerAnglesHint: {x: 0, y: 0, z: 0}
  m_AnchorMin: {x: 0, y: 0}
  m_AnchorMax: {x: 1, y: 0}
  m_AnchoredPosition: {x: 0, y: 0}
  m_SizeDelta: {x: 0, y: 768}
  m_Pivot: {x: 0.5, y: 0}
--- !u!222 &2765949028586788321
CanvasRenderer:
  m_ObjectHideFlags: 0
  m_CorrespondingSourceObject: {fileID: 0}
  m_PrefabInstance: {fileID: 0}
  m_PrefabAsset: {fileID: 0}
  m_GameObject: {fileID: 2765949028586788325}
  m_CullTransparentMesh: 0
--- !u!114 &2765949028586788326
MonoBehaviour:
  m_ObjectHideFlags: 0
  m_CorrespondingSourceObject: {fileID: 0}
  m_PrefabInstance: {fileID: 0}
  m_PrefabAsset: {fileID: 0}
  m_GameObject: {fileID: 2765949028586788325}
  m_Enabled: 1
  m_EditorHideFlags: 0
  m_Script: {fileID: -765806418, guid: f70555f144d8491a825f0804e09c671c, type: 3}
  m_Name: 
  m_EditorClassIdentifier: 
  m_Material: {fileID: 0}
  m_Color: {r: 0.9333334, g: 0.38431376, b: 0.38431376, a: 1}
  m_RaycastTarget: 1
  m_OnCullStateChanged:
    m_PersistentCalls:
      m_Calls: []
    m_TypeName: UnityEngine.UI.MaskableGraphic+CullStateChangedEvent, UnityEngine.UI,
      Version=1.0.0.0, Culture=neutral, PublicKeyToken=null
  m_Sprite: {fileID: 21300000, guid: a7be14d263a7d14499c3ca0ef8a869ba, type: 3}
  m_Type: 1
  m_PreserveAspect: 0
  m_FillCenter: 1
  m_FillMethod: 4
  m_FillAmount: 1
  m_FillClockwise: 1
  m_FillOrigin: 0
  m_UseSpriteMesh: 0
--- !u!114 &2765949028586788327
MonoBehaviour:
  m_ObjectHideFlags: 0
  m_CorrespondingSourceObject: {fileID: 0}
  m_PrefabInstance: {fileID: 0}
  m_PrefabAsset: {fileID: 0}
  m_GameObject: {fileID: 2765949028586788325}
  m_Enabled: 1
  m_EditorHideFlags: 0
  m_Script: {fileID: 11500000, guid: 54cf8c4b916540e6abe8991db870c45f, type: 3}
  m_Name: 
  m_EditorClassIdentifier: 
  ThemeIdSerializedGuid: 4970eed67e2b864e9e16a851bb1066cb
  VariantIdSerializedGuid: 
  PropertyIdSerializedGuid: d584b67f4a348d439c25cd7532df4a12
  Image: {fileID: 2765949028586788326}
  OverrideAlpha: 1
  Alpha: 1
--- !u!1 &2765949028615636469
GameObject:
  m_ObjectHideFlags: 0
  m_CorrespondingSourceObject: {fileID: 0}
  m_PrefabInstance: {fileID: 0}
  m_PrefabAsset: {fileID: 0}
  serializedVersion: 6
  m_Component:
  - component: {fileID: 2765949028615636468}
  - component: {fileID: 2765949028615636477}
  - component: {fileID: 2765949028615636466}
  - component: {fileID: 2765949028615636467}
  - component: {fileID: 2765949028615636464}
  - component: {fileID: 2765949028615636465}
  - component: {fileID: 2765949028615636470}
  - component: {fileID: 2765949028615636471}
  m_Layer: 0
  m_Name: View - 19
  m_TagString: Untagged
  m_Icon: {fileID: 0}
  m_NavMeshLayer: 0
  m_StaticEditorFlags: 0
  m_IsActive: 1
--- !u!224 &2765949028615636468
RectTransform:
  m_ObjectHideFlags: 0
  m_CorrespondingSourceObject: {fileID: 0}
  m_PrefabInstance: {fileID: 0}
  m_PrefabAsset: {fileID: 0}
  m_GameObject: {fileID: 2765949028615636469}
  m_LocalRotation: {x: 0, y: 0, z: 0, w: 1}
  m_LocalPosition: {x: 0, y: 0, z: 0}
  m_LocalScale: {x: 1, y: 1, z: 1}
  m_Children:
  - {fileID: 4338470812713288576}
  m_Father: {fileID: 0}
  m_RootOrder: 0
  m_LocalEulerAnglesHint: {x: 0, y: 0, z: 0}
  m_AnchorMin: {x: 0, y: 0}
  m_AnchorMax: {x: 1, y: 1}
  m_AnchoredPosition: {x: 0, y: 0}
  m_SizeDelta: {x: 0, y: 0}
  m_Pivot: {x: 0.5, y: 0.5}
--- !u!223 &2765949028615636477
Canvas:
  m_ObjectHideFlags: 0
  m_CorrespondingSourceObject: {fileID: 0}
  m_PrefabInstance: {fileID: 0}
  m_PrefabAsset: {fileID: 0}
  m_GameObject: {fileID: 2765949028615636469}
  m_Enabled: 1
  serializedVersion: 3
  m_RenderMode: 2
  m_Camera: {fileID: 0}
  m_PlaneDistance: 100
  m_PixelPerfect: 0
  m_ReceivesEvents: 1
  m_OverrideSorting: 0
  m_OverridePixelPerfect: 0
  m_SortingBucketNormalizedSize: 0
  m_AdditionalShaderChannelsFlag: 25
  m_SortingLayerID: 0
  m_SortingOrder: 0
  m_TargetDisplay: 0
--- !u!114 &2765949028615636466
MonoBehaviour:
  m_ObjectHideFlags: 0
  m_CorrespondingSourceObject: {fileID: 0}
  m_PrefabInstance: {fileID: 0}
  m_PrefabAsset: {fileID: 0}
  m_GameObject: {fileID: 2765949028615636469}
  m_Enabled: 1
  m_EditorHideFlags: 0
  m_Script: {fileID: 1301386320, guid: f70555f144d8491a825f0804e09c671c, type: 3}
  m_Name: 
  m_EditorClassIdentifier: 
  m_IgnoreReversedGraphics: 1
  m_BlockingObjects: 0
  m_BlockingMask:
    serializedVersion: 2
    m_Bits: 4294967295
--- !u!225 &2765949028615636467
CanvasGroup:
  m_ObjectHideFlags: 0
  m_CorrespondingSourceObject: {fileID: 0}
  m_PrefabInstance: {fileID: 0}
  m_PrefabAsset: {fileID: 0}
  m_GameObject: {fileID: 2765949028615636469}
  m_Enabled: 1
  m_Alpha: 1
  m_Interactable: 1
  m_BlocksRaycasts: 1
  m_IgnoreParentGroups: 0
--- !u!114 &2765949028615636464
MonoBehaviour:
  m_ObjectHideFlags: 0
  m_CorrespondingSourceObject: {fileID: 0}
  m_PrefabInstance: {fileID: 0}
  m_PrefabAsset: {fileID: 0}
  m_GameObject: {fileID: 2765949028615636469}
  m_Enabled: 1
  m_EditorHideFlags: 0
  m_Script: {fileID: 11500000, guid: 314affd16bceddb4c99fbaa07de901d9, type: 3}
  m_Name: 
  m_EditorClassIdentifier: 
  DebugMode: 0
  StartPosition: {x: 0, y: 0, z: 0}
  StartRotation: {x: -0, y: 0, z: 0}
  StartScale: {x: 1, y: 1, z: 1}
  StartAlpha: 1
  AutoHideAfterShow: 0
  AutoHideAfterShowDelay: 3
  AutoSelectButtonAfterShow: 0
  BehaviorAtStart: 1
  CustomStartAnchoredPosition: {x: 0, y: 0, z: 0}
  DeselectAnyButtonSelectedOnHide: 0
  DeselectAnyButtonSelectedOnShow: 0
  DisableCanvasWhenHidden: 1
  DisableGameObjectWhenHidden: 1
  DisableGraphicRaycasterWhenHidden: 1
  HideBehavior:
    Animation:
      AnimationType: 2
      Move:
        AnimationType: 2
        Enabled: 0
        From: {x: 0, y: 0, z: 0}
        To: {x: 0, y: 0, z: 0}
        By: {x: 0, y: 0, z: 0}
        UseCustomFromAndTo: 0
        Vibrato: 10
        Elasticity: 1
        NumberOfLoops: -1
        LoopType: 1
        Direction: 0
        CustomPosition: {x: 0, y: 0, z: 0}
        EaseType: 0
        Ease: 1
        AnimationCurve:
          serializedVersion: 2
          m_Curve: []
          m_PreInfinity: 2
          m_PostInfinity: 2
          m_RotationOrder: 4
        StartDelay: 0
        Duration: 1
      Rotate:
        AnimationType: 2
        Enabled: 0
        From: {x: 0, y: 0, z: 0}
        To: {x: 0, y: 0, z: 0}
        By: {x: 0, y: 0, z: 0}
        UseCustomFromAndTo: 0
        Vibrato: 10
        Elasticity: 1
        NumberOfLoops: -1
        LoopType: 1
        RotateMode: 1
        EaseType: 0
        Ease: 1
        AnimationCurve:
          serializedVersion: 2
          m_Curve: []
          m_PreInfinity: 2
          m_PostInfinity: 2
          m_RotationOrder: 4
        StartDelay: 0
        Duration: 1
      Scale:
        AnimationType: 2
        Enabled: 1
        From: {x: 0, y: 0, z: 0}
        To: {x: 0, y: 0, z: 0}
        By: {x: 0, y: 0, z: 0}
        UseCustomFromAndTo: 0
        Vibrato: 10
        Elasticity: 1
        NumberOfLoops: -1
        LoopType: 1
        EaseType: 0
        Ease: 1
        AnimationCurve:
          serializedVersion: 2
          m_Curve: []
          m_PreInfinity: 2
          m_PostInfinity: 2
          m_RotationOrder: 4
        StartDelay: 0
        Duration: 0.3
      Fade:
        AnimationType: 2
        Enabled: 1
        From: 0
        To: 0
        By: 0.5
        UseCustomFromAndTo: 0
        NumberOfLoops: -1
        LoopType: 1
        EaseType: 0
        Ease: 1
        AnimationCurve:
          serializedVersion: 2
          m_Curve: []
          m_PreInfinity: 2
          m_PostInfinity: 2
          m_RotationOrder: 4
        StartDelay: 0
        Duration: 0.1
    AutoStartLoopAnimation: 1
    LoadSelectedPresetAtRuntime: 0
    InstantAnimation: 0
    OnFinished:
      AnimatorEvents: []
      Effect:
        AutoSort: 1
        Behavior: 0
        CustomSortingOrder: 0
        SortingSteps: 1
        ParticleSystem: {fileID: 0}
        StopBehavior: 1
        CustomSortingLayer: Default
      Event:
        m_PersistentCalls:
          m_Calls: []
        m_TypeName: UnityEngine.Events.UnityEvent, UnityEngine.CoreModule, Version=0.0.0.0,
          Culture=neutral, PublicKeyToken=null
      GameEvents: []
      SoundData:
        SoundSource: 0
        DatabaseName: General
        SoundName: No Sound
        AudioClip: {fileID: 0}
        OutputAudioMixerGroup: {fileID: 0}
    OnStart:
      AnimatorEvents: []
      Effect:
        AutoSort: 1
        Behavior: 0
        CustomSortingOrder: 0
        SortingSteps: 1
        ParticleSystem: {fileID: 0}
        StopBehavior: 1
        CustomSortingLayer: Default
      Event:
        m_PersistentCalls:
          m_Calls: []
        m_TypeName: UnityEngine.Events.UnityEvent, UnityEngine.CoreModule, Version=0.0.0.0,
          Culture=neutral, PublicKeyToken=null
      GameEvents: []
      SoundData:
        SoundSource: 0
        DatabaseName: General
        SoundName: No Sound
        AudioClip: {fileID: 0}
        OutputAudioMixerGroup: {fileID: 0}
    PresetCategory: Uncategorized
    PresetName: Default
  HideProgressor: {fileID: 2765949028615636471}
  LoopBehavior:
    Animation:
      AnimationType: 3
      Move:
        AnimationType: 3
        Enabled: 0
        From: {x: 0, y: 0, z: 0}
        To: {x: 0, y: 0, z: 0}
        By: {x: 0, y: 0, z: 0}
        UseCustomFromAndTo: 0
        Vibrato: 10
        Elasticity: 1
        NumberOfLoops: -1
        LoopType: 1
        Direction: 0
        CustomPosition: {x: 0, y: 0, z: 0}
        EaseType: 0
        Ease: 1
        AnimationCurve:
          serializedVersion: 2
          m_Curve: []
          m_PreInfinity: 2
          m_PostInfinity: 2
          m_RotationOrder: 4
        StartDelay: 0
        Duration: 1
      Rotate:
        AnimationType: 3
        Enabled: 0
        From: {x: 0, y: 0, z: 0}
        To: {x: 0, y: 0, z: 0}
        By: {x: 0, y: 0, z: 0}
        UseCustomFromAndTo: 0
        Vibrato: 10
        Elasticity: 1
        NumberOfLoops: -1
        LoopType: 1
        RotateMode: 1
        EaseType: 0
        Ease: 1
        AnimationCurve:
          serializedVersion: 2
          m_Curve: []
          m_PreInfinity: 2
          m_PostInfinity: 2
          m_RotationOrder: 4
        StartDelay: 0
        Duration: 1
      Scale:
        AnimationType: 3
        Enabled: 0
        From: {x: 0, y: 0, z: 0}
        To: {x: 0, y: 0, z: 0}
        By: {x: 0, y: 0, z: 0}
        UseCustomFromAndTo: 0
        Vibrato: 10
        Elasticity: 1
        NumberOfLoops: -1
        LoopType: 1
        EaseType: 0
        Ease: 1
        AnimationCurve:
          serializedVersion: 2
          m_Curve: []
          m_PreInfinity: 2
          m_PostInfinity: 2
          m_RotationOrder: 4
        StartDelay: 0
        Duration: 1
      Fade:
        AnimationType: 3
        Enabled: 0
        From: 0
        To: 0
        By: 0.5
        UseCustomFromAndTo: 0
        NumberOfLoops: -1
        LoopType: 1
        EaseType: 0
        Ease: 1
        AnimationCurve:
          serializedVersion: 2
          m_Curve: []
          m_PreInfinity: 2
          m_PostInfinity: 2
          m_RotationOrder: 4
        StartDelay: 0
        Duration: 1
    AutoStartLoopAnimation: 1
    LoadSelectedPresetAtRuntime: 0
    InstantAnimation: 0
    OnFinished:
      AnimatorEvents: []
      Effect:
        AutoSort: 1
        Behavior: 0
        CustomSortingOrder: 0
        SortingSteps: 1
        ParticleSystem: {fileID: 0}
        StopBehavior: 1
        CustomSortingLayer: Default
      Event:
        m_PersistentCalls:
          m_Calls: []
        m_TypeName: UnityEngine.Events.UnityEvent, UnityEngine.CoreModule, Version=0.0.0.0,
          Culture=neutral, PublicKeyToken=null
      GameEvents: []
      SoundData:
        SoundSource: 0
        DatabaseName: General
        SoundName: No Sound
        AudioClip: {fileID: 0}
        OutputAudioMixerGroup: {fileID: 0}
    OnStart:
      AnimatorEvents: []
      Effect:
        AutoSort: 1
        Behavior: 0
        CustomSortingOrder: 0
        SortingSteps: 1
        ParticleSystem: {fileID: 0}
        StopBehavior: 1
        CustomSortingLayer: Default
      Event:
        m_PersistentCalls:
          m_Calls: []
        m_TypeName: UnityEngine.Events.UnityEvent, UnityEngine.CoreModule, Version=0.0.0.0,
          Culture=neutral, PublicKeyToken=null
      GameEvents: []
      SoundData:
        SoundSource: 0
        DatabaseName: General
        SoundName: No Sound
        AudioClip: {fileID: 0}
        OutputAudioMixerGroup: {fileID: 0}
    PresetCategory: Uncategorized
    PresetName: Default
  OnInverseVisibilityChanged:
    m_PersistentCalls:
      m_Calls: []
    m_TypeName: Doozy.Engine.Progress.ProgressEvent, Assembly-CSharp, Version=0.0.0.0,
      Culture=neutral, PublicKeyToken=null
  OnVisibilityChanged:
    m_PersistentCalls:
      m_Calls: []
    m_TypeName: Doozy.Engine.Progress.ProgressEvent, Assembly-CSharp, Version=0.0.0.0,
      Culture=neutral, PublicKeyToken=null
  SelectedButton: {fileID: 0}
  ShowBehavior:
    Animation:
      AnimationType: 1
      Move:
        AnimationType: 1
        Enabled: 0
        From: {x: 0, y: 0, z: 0}
        To: {x: 0, y: 0, z: 0}
        By: {x: 0, y: 0, z: 0}
        UseCustomFromAndTo: 0
        Vibrato: 10
        Elasticity: 1
        NumberOfLoops: -1
        LoopType: 1
        Direction: 0
        CustomPosition: {x: 0, y: 0, z: 0}
        EaseType: 0
        Ease: 1
        AnimationCurve:
          serializedVersion: 2
          m_Curve: []
          m_PreInfinity: 2
          m_PostInfinity: 2
          m_RotationOrder: 4
        StartDelay: 0
        Duration: 1
      Rotate:
        AnimationType: 1
        Enabled: 0
        From: {x: 0, y: 0, z: 0}
        To: {x: 0, y: 0, z: 0}
        By: {x: 0, y: 0, z: 0}
        UseCustomFromAndTo: 0
        Vibrato: 10
        Elasticity: 1
        NumberOfLoops: -1
        LoopType: 1
        RotateMode: 1
        EaseType: 0
        Ease: 1
        AnimationCurve:
          serializedVersion: 2
          m_Curve: []
          m_PreInfinity: 2
          m_PostInfinity: 2
          m_RotationOrder: 4
        StartDelay: 0
        Duration: 1
      Scale:
        AnimationType: 1
        Enabled: 1
        From: {x: 0, y: 0, z: 0}
        To: {x: 0, y: 0, z: 0}
        By: {x: 0, y: 0, z: 0}
        UseCustomFromAndTo: 0
        Vibrato: 10
        Elasticity: 1
        NumberOfLoops: -1
        LoopType: 1
        EaseType: 0
        Ease: 1
        AnimationCurve:
          serializedVersion: 2
          m_Curve: []
          m_PreInfinity: 2
          m_PostInfinity: 2
          m_RotationOrder: 4
        StartDelay: 0
        Duration: 0.2
      Fade:
        AnimationType: 1
        Enabled: 1
        From: 0.95
        To: 0
        By: 0.5
        UseCustomFromAndTo: 0
        NumberOfLoops: -1
        LoopType: 1
        EaseType: 0
        Ease: 1
        AnimationCurve:
          serializedVersion: 2
          m_Curve: []
          m_PreInfinity: 2
          m_PostInfinity: 2
          m_RotationOrder: 4
        StartDelay: 0.2
        Duration: 0.4
    AutoStartLoopAnimation: 1
    LoadSelectedPresetAtRuntime: 0
    InstantAnimation: 0
    OnFinished:
      AnimatorEvents: []
      Effect:
        AutoSort: 1
        Behavior: 0
        CustomSortingOrder: 0
        SortingSteps: 1
        ParticleSystem: {fileID: 0}
        StopBehavior: 1
        CustomSortingLayer: Default
      Event:
        m_PersistentCalls:
          m_Calls: []
        m_TypeName: UnityEngine.Events.UnityEvent, UnityEngine.CoreModule, Version=0.0.0.0,
          Culture=neutral, PublicKeyToken=null
      GameEvents: []
      SoundData:
        SoundSource: 0
        DatabaseName: General
        SoundName: No Sound
        AudioClip: {fileID: 0}
        OutputAudioMixerGroup: {fileID: 0}
    OnStart:
      AnimatorEvents: []
      Effect:
        AutoSort: 1
        Behavior: 0
        CustomSortingOrder: 0
        SortingSteps: 1
        ParticleSystem: {fileID: 0}
        StopBehavior: 1
        CustomSortingLayer: Default
      Event:
        m_PersistentCalls:
          m_Calls: []
        m_TypeName: UnityEngine.Events.UnityEvent, UnityEngine.CoreModule, Version=0.0.0.0,
          Culture=neutral, PublicKeyToken=null
      GameEvents: []
      SoundData:
        SoundSource: 0
        DatabaseName: General
        SoundName: No Sound
        AudioClip: {fileID: 0}
        OutputAudioMixerGroup: {fileID: 0}
    PresetCategory: Uncategorized
    PresetName: Default
  ShowProgressor: {fileID: 0}
  TargetOrientation: 2
  UpdateHideProgressorOnShow: 1
  UpdateShowProgressorOnHide: 0
  UseCustomStartAnchoredPosition: 1
  ViewCategory: General
  ViewName: Unnamed
--- !u!95 &2765949028615636465
Animator:
  serializedVersion: 3
  m_ObjectHideFlags: 0
  m_CorrespondingSourceObject: {fileID: 0}
  m_PrefabInstance: {fileID: 0}
  m_PrefabAsset: {fileID: 0}
  m_GameObject: {fileID: 2765949028615636469}
  m_Enabled: 1
  m_Avatar: {fileID: 0}
  m_Controller: {fileID: 9100000, guid: b8a76160ab57f3b41ac703ad388ec31f, type: 2}
  m_CullingMode: 0
  m_UpdateMode: 0
  m_ApplyRootMotion: 0
  m_LinearVelocityBlending: 0
  m_WarningMessage: 
  m_HasTransformHierarchy: 1
  m_AllowConstantClipSamplingOptimization: 1
  m_KeepAnimatorControllerStateOnDisable: 0
--- !u!114 &2765949028615636470
MonoBehaviour:
  m_ObjectHideFlags: 0
  m_CorrespondingSourceObject: {fileID: 0}
  m_PrefabInstance: {fileID: 0}
  m_PrefabAsset: {fileID: 0}
  m_GameObject: {fileID: 2765949028615636469}
  m_Enabled: 1
  m_EditorHideFlags: 0
  m_Script: {fileID: 11500000, guid: 779d2338e8d61bc4f9e65969cd74fb0f, type: 3}
  m_Name: 
  m_EditorClassIdentifier: 
  Animator: {fileID: 2765949028615636465}
  ParameterName: Progress
  TargetProgress: 0
--- !u!114 &2765949028615636471
MonoBehaviour:
  m_ObjectHideFlags: 0
  m_CorrespondingSourceObject: {fileID: 0}
  m_PrefabInstance: {fileID: 0}
  m_PrefabAsset: {fileID: 0}
  m_GameObject: {fileID: 2765949028615636469}
  m_Enabled: 1
  m_EditorHideFlags: 0
  m_Script: {fileID: 11500000, guid: 0dd4fcd1a439fed4084f8b519848b636, type: 3}
  m_Name: 
  m_EditorClassIdentifier: 
  DebugMode: 0
  ProgressTargets:
  - {fileID: 2765949028615636470}
  - {fileID: 2765949029451389294}
  AnimateValue: 0
  AnimationDuration: 0.5
  AnimationEase: 1
  AnimationIgnoresUnityTimescale: 0
  OnEnableResetValue: 1
  OnDisableResetValue: 0
  CustomResetValue: 0
  OnValueChanged:
    m_PersistentCalls:
      m_Calls: []
    m_TypeName: Doozy.Engine.Progress.ProgressEvent, Assembly-CSharp, Version=0.0.0.0,
      Culture=neutral, PublicKeyToken=null
  OnProgressChanged:
    m_PersistentCalls:
      m_Calls: []
    m_TypeName: Doozy.Engine.Progress.ProgressEvent, Assembly-CSharp, Version=0.0.0.0,
      Culture=neutral, PublicKeyToken=null
  OnInverseProgressChanged:
    m_PersistentCalls:
      m_Calls: []
    m_TypeName: Doozy.Engine.Progress.ProgressEvent, Assembly-CSharp, Version=0.0.0.0,
      Culture=neutral, PublicKeyToken=null
  m_minValue: 0
  m_maxValue: 1
  m_wholeNumbers: 0
  m_currentValue: 0
--- !u!1 &2765949029451389283
GameObject:
  m_ObjectHideFlags: 0
  m_CorrespondingSourceObject: {fileID: 0}
  m_PrefabInstance: {fileID: 0}
  m_PrefabAsset: {fileID: 0}
  serializedVersion: 6
  m_Component:
  - component: {fileID: 2765949029451389282}
  - component: {fileID: 2765949029451389295}
  - component: {fileID: 2765949029451389292}
  - component: {fileID: 2765949029451389293}
  - component: {fileID: 2765949029451389294}
  m_Layer: 0
  m_Name: Counter Text
  m_TagString: Untagged
  m_Icon: {fileID: 0}
  m_NavMeshLayer: 0
  m_StaticEditorFlags: 0
  m_IsActive: 1
--- !u!224 &2765949029451389282
RectTransform:
  m_ObjectHideFlags: 0
  m_CorrespondingSourceObject: {fileID: 0}
  m_PrefabInstance: {fileID: 0}
  m_PrefabAsset: {fileID: 0}
  m_GameObject: {fileID: 2765949029451389283}
  m_LocalRotation: {x: 0, y: 0, z: 0, w: 1}
  m_LocalPosition: {x: 0, y: 0, z: 0}
  m_LocalScale: {x: 1, y: 1, z: 1}
  m_Children: []
  m_Father: {fileID: 1725470780467581657}
  m_RootOrder: 1
  m_LocalEulerAnglesHint: {x: 0, y: 0, z: 0}
  m_AnchorMin: {x: 0, y: 0}
  m_AnchorMax: {x: 1, y: 1}
  m_AnchoredPosition: {x: 0, y: 0}
  m_SizeDelta: {x: 0, y: 0}
  m_Pivot: {x: 0.5, y: 0.5}
--- !u!222 &2765949029451389295
CanvasRenderer:
  m_ObjectHideFlags: 0
  m_CorrespondingSourceObject: {fileID: 0}
  m_PrefabInstance: {fileID: 0}
  m_PrefabAsset: {fileID: 0}
  m_GameObject: {fileID: 2765949029451389283}
  m_CullTransparentMesh: 0
--- !u!114 &2765949029451389292
MonoBehaviour:
  m_ObjectHideFlags: 0
  m_CorrespondingSourceObject: {fileID: 0}
  m_PrefabInstance: {fileID: 0}
  m_PrefabAsset: {fileID: 0}
  m_GameObject: {fileID: 2765949029451389283}
  m_Enabled: 1
  m_EditorHideFlags: 0
  m_Script: {fileID: 11500000, guid: f4688fdb7df04437aeb418b961361dc5, type: 3}
  m_Name: 
  m_EditorClassIdentifier: 
  m_Material: {fileID: 0}
  m_Color: {r: 1, g: 1, b: 1, a: 1}
  m_RaycastTarget: 1
  m_OnCullStateChanged:
    m_PersistentCalls:
      m_Calls: []
    m_TypeName: UnityEngine.UI.MaskableGraphic+CullStateChangedEvent, UnityEngine.UI,
      Version=1.0.0.0, Culture=neutral, PublicKeyToken=null
  m_text: 0
  m_isRightToLeft: 0
  m_fontAsset: {fileID: 11400000, guid: 643aebd7124d3c34bb062c5a60ebb5a8, type: 2}
  m_sharedMaterial: {fileID: 4835089367266696174, guid: 643aebd7124d3c34bb062c5a60ebb5a8,
    type: 2}
  m_fontSharedMaterials: []
  m_fontMaterial: {fileID: 0}
  m_fontMaterials: []
  m_fontColor32:
    serializedVersion: 2
    rgba: 4281807149
  m_fontColor: {r: 0.17911176, g: 0.19398901, b: 0.21698111, a: 1}
  m_enableVertexGradient: 0
  m_colorMode: 3
  m_fontColorGradient:
    topLeft: {r: 1, g: 1, b: 1, a: 1}
    topRight: {r: 1, g: 1, b: 1, a: 1}
    bottomLeft: {r: 1, g: 1, b: 1, a: 1}
    bottomRight: {r: 1, g: 1, b: 1, a: 1}
  m_fontColorGradientPreset: {fileID: 0}
  m_spriteAsset: {fileID: 0}
  m_tintAllSprites: 0
  m_overrideHtmlColors: 0
  m_faceColor:
    serializedVersion: 2
    rgba: 4294967295
  m_outlineColor:
    serializedVersion: 2
    rgba: 4278190080
  m_fontSize: 224
  m_fontSizeBase: 36
  m_fontWeight: 400
  m_enableAutoSizing: 1
  m_fontSizeMin: 18
  m_fontSizeMax: 224
  m_fontStyle: 0
  m_textAlignment: 514
  m_characterSpacing: 0
  m_wordSpacing: 0
  m_lineSpacing: 0
  m_lineSpacingMax: 0
  m_paragraphSpacing: 0
  m_charWidthMaxAdj: 0
  m_enableWordWrapping: 1
  m_wordWrappingRatios: 0.4
  m_overflowMode: 0
  m_firstOverflowCharacterIndex: -1
  m_linkedTextComponent: {fileID: 0}
  m_isLinkedTextComponent: 0
  m_isTextTruncated: 0
  m_enableKerning: 1
  m_enableExtraPadding: 0
  checkPaddingRequired: 0
  m_isRichText: 1
  m_parseCtrlCharacters: 1
  m_isOrthographic: 1
  m_isCullingEnabled: 0
  m_ignoreRectMaskCulling: 0
  m_ignoreCulling: 1
  m_horizontalMapping: 0
  m_verticalMapping: 0
  m_uvLineOffset: 0
  m_geometrySortingOrder: 0
  m_VertexBufferAutoSizeReduction: 1
  m_firstVisibleCharacter: 0
  m_useMaxVisibleDescender: 1
  m_pageToDisplay: 1
  m_margin: {x: 0, y: 0, z: 0, w: 0}
  m_textInfo:
    textComponent: {fileID: 2765949029451389292}
    characterCount: 1
    spriteCount: 0
    spaceCount: 0
    wordCount: 1
    linkCount: 0
    lineCount: 1
    pageCount: 1
    materialCount: 1
  m_isUsingLegacyAnimationComponent: 0
  m_isVolumetricText: 0
  m_spriteAnimator: {fileID: 0}
  m_hasFontAssetChanged: 0
  m_subTextObjects:
  - {fileID: 0}
  - {fileID: 0}
  - {fileID: 0}
  - {fileID: 0}
  - {fileID: 0}
  - {fileID: 0}
  - {fileID: 0}
  - {fileID: 0}
  m_baseMaterial: {fileID: 0}
  m_maskOffset: {x: 0, y: 0, z: 0, w: 0}
--- !u!114 &2765949029451389293
MonoBehaviour:
  m_ObjectHideFlags: 0
  m_CorrespondingSourceObject: {fileID: 0}
  m_PrefabInstance: {fileID: 0}
  m_PrefabAsset: {fileID: 0}
  m_GameObject: {fileID: 2765949029451389283}
  m_Enabled: 1
  m_EditorHideFlags: 0
  m_Script: {fileID: 11500000, guid: 8f34e6c94be345baaafed933eb7531ca, type: 3}
  m_Name: 
  m_EditorClassIdentifier: 
  ThemeIdSerializedGuid: 4970eed67e2b864e9e16a851bb1066cb
  VariantIdSerializedGuid: 
  PropertyIdSerializedGuid: 819655143e83ec45a23d672ee8116674
  TextMeshPro: {fileID: 2765949029451389292}
  OverrideAlpha: 1
  Alpha: 1
--- !u!114 &2765949029451389294
MonoBehaviour:
  m_ObjectHideFlags: 0
  m_CorrespondingSourceObject: {fileID: 0}
  m_PrefabInstance: {fileID: 0}
  m_PrefabAsset: {fileID: 0}
  m_GameObject: {fileID: 2765949029451389283}
  m_Enabled: 1
  m_EditorHideFlags: 0
  m_Script: {fileID: 11500000, guid: 7e9e0c0fb50e4aeeb8187ec2c88d2c99, type: 3}
  m_Name: 
  m_EditorClassIdentifier: 
  TextMeshPro: {fileID: 2765949029451389292}
  TargetVariable: 3
  WholeNumbers: 1
  UseMultiplier: 1
  Multiplier: 60
  Prefix: 
  Suffix: 
--- !u!1 &2765949029700793422
GameObject:
  m_ObjectHideFlags: 0
  m_CorrespondingSourceObject: {fileID: 0}
  m_PrefabInstance: {fileID: 0}
  m_PrefabAsset: {fileID: 0}
  serializedVersion: 6
  m_Component:
  - component: {fileID: 2765949029700793417}
  - component: {fileID: 2765949029700793416}
  m_Layer: 0
  m_Name: BottomButtons
  m_TagString: Untagged
  m_Icon: {fileID: 0}
  m_NavMeshLayer: 0
  m_StaticEditorFlags: 0
  m_IsActive: 1
--- !u!224 &2765949029700793417
RectTransform:
  m_ObjectHideFlags: 0
  m_CorrespondingSourceObject: {fileID: 0}
  m_PrefabInstance: {fileID: 0}
  m_PrefabAsset: {fileID: 0}
  m_GameObject: {fileID: 2765949029700793422}
  m_LocalRotation: {x: 0, y: 0, z: 0, w: 1}
  m_LocalPosition: {x: 0, y: 0, z: 0}
  m_LocalScale: {x: 1, y: 1, z: 1}
  m_Children:
  - {fileID: 1545985185530672632}
  m_Father: {fileID: 1725470780467581657}
  m_RootOrder: 2
  m_LocalEulerAnglesHint: {x: 0, y: 0, z: 0}
  m_AnchorMin: {x: 0, y: 0}
  m_AnchorMax: {x: 1, y: 0}
  m_AnchoredPosition: {x: 0, y: 0}
  m_SizeDelta: {x: 0, y: 192}
  m_Pivot: {x: 0.5, y: 0}
--- !u!225 &2765949029700793416
CanvasGroup:
  m_ObjectHideFlags: 0
  m_CorrespondingSourceObject: {fileID: 0}
  m_PrefabInstance: {fileID: 0}
  m_PrefabAsset: {fileID: 0}
  m_GameObject: {fileID: 2765949029700793422}
  m_Enabled: 1
  m_Alpha: 1
  m_Interactable: 1
  m_BlocksRaycasts: 1
  m_IgnoreParentGroups: 0
--- !u!1001 &2765949028877090645
PrefabInstance:
  m_ObjectHideFlags: 0
  serializedVersion: 2
  m_Modification:
    m_TransformParent: {fileID: 2765949029700793417}
    m_Modifications:
    - target: {fileID: 7308801437265773315, guid: 0155c5d9e6acf7b4c8c5812779c67095,
        type: 3}
      propertyPath: m_Name
      value: Button - 2 @ 96x96 - Rounded - Icon
      objectReference: {fileID: 0}
    - target: {fileID: 3681392156760361645, guid: 0155c5d9e6acf7b4c8c5812779c67095,
        type: 3}
      propertyPath: m_LocalPosition.x
      value: 0
      objectReference: {fileID: 0}
    - target: {fileID: 3681392156760361645, guid: 0155c5d9e6acf7b4c8c5812779c67095,
        type: 3}
      propertyPath: m_LocalPosition.y
      value: 0
      objectReference: {fileID: 0}
    - target: {fileID: 3681392156760361645, guid: 0155c5d9e6acf7b4c8c5812779c67095,
        type: 3}
      propertyPath: m_LocalPosition.z
      value: 0
      objectReference: {fileID: 0}
    - target: {fileID: 3681392156760361645, guid: 0155c5d9e6acf7b4c8c5812779c67095,
        type: 3}
      propertyPath: m_LocalRotation.x
      value: 0
      objectReference: {fileID: 0}
    - target: {fileID: 3681392156760361645, guid: 0155c5d9e6acf7b4c8c5812779c67095,
        type: 3}
      propertyPath: m_LocalRotation.y
      value: 0
      objectReference: {fileID: 0}
    - target: {fileID: 3681392156760361645, guid: 0155c5d9e6acf7b4c8c5812779c67095,
        type: 3}
      propertyPath: m_LocalRotation.z
      value: 0
      objectReference: {fileID: 0}
    - target: {fileID: 3681392156760361645, guid: 0155c5d9e6acf7b4c8c5812779c67095,
        type: 3}
      propertyPath: m_LocalRotation.w
      value: 1
      objectReference: {fileID: 0}
    - target: {fileID: 3681392156760361645, guid: 0155c5d9e6acf7b4c8c5812779c67095,
        type: 3}
      propertyPath: m_RootOrder
      value: 0
      objectReference: {fileID: 0}
    - target: {fileID: 3681392156760361645, guid: 0155c5d9e6acf7b4c8c5812779c67095,
        type: 3}
      propertyPath: m_LocalEulerAnglesHint.x
      value: 0
      objectReference: {fileID: 0}
    - target: {fileID: 3681392156760361645, guid: 0155c5d9e6acf7b4c8c5812779c67095,
        type: 3}
      propertyPath: m_LocalEulerAnglesHint.y
      value: 0
      objectReference: {fileID: 0}
    - target: {fileID: 3681392156760361645, guid: 0155c5d9e6acf7b4c8c5812779c67095,
        type: 3}
      propertyPath: m_LocalEulerAnglesHint.z
      value: 0
      objectReference: {fileID: 0}
    - target: {fileID: 3681392156760361645, guid: 0155c5d9e6acf7b4c8c5812779c67095,
        type: 3}
      propertyPath: m_AnchoredPosition.x
      value: 0
      objectReference: {fileID: 0}
    - target: {fileID: 3681392156760361645, guid: 0155c5d9e6acf7b4c8c5812779c67095,
        type: 3}
      propertyPath: m_AnchoredPosition.y
      value: 0
      objectReference: {fileID: 0}
    - target: {fileID: 3681392156760361645, guid: 0155c5d9e6acf7b4c8c5812779c67095,
        type: 3}
      propertyPath: m_SizeDelta.x
      value: 96
      objectReference: {fileID: 0}
    - target: {fileID: 3681392156760361645, guid: 0155c5d9e6acf7b4c8c5812779c67095,
        type: 3}
      propertyPath: m_SizeDelta.y
      value: 96
      objectReference: {fileID: 0}
    - target: {fileID: 3681392156760361645, guid: 0155c5d9e6acf7b4c8c5812779c67095,
        type: 3}
      propertyPath: m_AnchorMin.x
      value: 0.5
      objectReference: {fileID: 0}
    - target: {fileID: 3681392156760361645, guid: 0155c5d9e6acf7b4c8c5812779c67095,
        type: 3}
      propertyPath: m_AnchorMin.y
      value: 0.5
      objectReference: {fileID: 0}
    - target: {fileID: 3681392156760361645, guid: 0155c5d9e6acf7b4c8c5812779c67095,
        type: 3}
      propertyPath: m_AnchorMax.x
      value: 0.5
      objectReference: {fileID: 0}
    - target: {fileID: 3681392156760361645, guid: 0155c5d9e6acf7b4c8c5812779c67095,
        type: 3}
      propertyPath: m_AnchorMax.y
      value: 0.5
      objectReference: {fileID: 0}
    - target: {fileID: 3681392156760361645, guid: 0155c5d9e6acf7b4c8c5812779c67095,
        type: 3}
      propertyPath: m_Pivot.x
      value: 0.5
      objectReference: {fileID: 0}
    - target: {fileID: 3681392156760361645, guid: 0155c5d9e6acf7b4c8c5812779c67095,
        type: 3}
      propertyPath: m_Pivot.y
      value: 0.5
      objectReference: {fileID: 0}
    - target: {fileID: 7716803278375852789, guid: 0155c5d9e6acf7b4c8c5812779c67095,
        type: 3}
      propertyPath: m_Sprite
      value: 
      objectReference: {fileID: 21300000, guid: f5e7d508ce9d68a439d09c678ed829b0,
        type: 3}
    - target: {fileID: 7716803278375852789, guid: 0155c5d9e6acf7b4c8c5812779c67095,
        type: 3}
      propertyPath: m_Color.r
      value: 0.9333334
      objectReference: {fileID: 0}
    - target: {fileID: 7716803278375852789, guid: 0155c5d9e6acf7b4c8c5812779c67095,
        type: 3}
      propertyPath: m_Color.g
      value: 0.38431376
      objectReference: {fileID: 0}
    - target: {fileID: 7716803278375852789, guid: 0155c5d9e6acf7b4c8c5812779c67095,
        type: 3}
      propertyPath: m_Color.b
      value: 0.38431376
      objectReference: {fileID: 0}
    - target: {fileID: 7461897258252223846, guid: 0155c5d9e6acf7b4c8c5812779c67095,
        type: 3}
      propertyPath: PropertyIdSerializedGuid.Array.data[0]
      value: 213
      objectReference: {fileID: 0}
    - target: {fileID: 7461897258252223846, guid: 0155c5d9e6acf7b4c8c5812779c67095,
        type: 3}
      propertyPath: PropertyIdSerializedGuid.Array.data[1]
      value: 132
      objectReference: {fileID: 0}
    - target: {fileID: 7461897258252223846, guid: 0155c5d9e6acf7b4c8c5812779c67095,
        type: 3}
      propertyPath: PropertyIdSerializedGuid.Array.data[2]
      value: 182
      objectReference: {fileID: 0}
    - target: {fileID: 7461897258252223846, guid: 0155c5d9e6acf7b4c8c5812779c67095,
        type: 3}
      propertyPath: PropertyIdSerializedGuid.Array.data[3]
      value: 127
      objectReference: {fileID: 0}
    - target: {fileID: 7461897258252223846, guid: 0155c5d9e6acf7b4c8c5812779c67095,
        type: 3}
      propertyPath: PropertyIdSerializedGuid.Array.data[4]
      value: 74
      objectReference: {fileID: 0}
    - target: {fileID: 7461897258252223846, guid: 0155c5d9e6acf7b4c8c5812779c67095,
        type: 3}
      propertyPath: PropertyIdSerializedGuid.Array.data[5]
      value: 52
      objectReference: {fileID: 0}
    - target: {fileID: 7461897258252223846, guid: 0155c5d9e6acf7b4c8c5812779c67095,
        type: 3}
      propertyPath: PropertyIdSerializedGuid.Array.data[6]
      value: 141
      objectReference: {fileID: 0}
    - target: {fileID: 7461897258252223846, guid: 0155c5d9e6acf7b4c8c5812779c67095,
        type: 3}
      propertyPath: PropertyIdSerializedGuid.Array.data[7]
      value: 67
      objectReference: {fileID: 0}
    - target: {fileID: 7461897258252223846, guid: 0155c5d9e6acf7b4c8c5812779c67095,
        type: 3}
      propertyPath: PropertyIdSerializedGuid.Array.data[8]
      value: 156
      objectReference: {fileID: 0}
    - target: {fileID: 7461897258252223846, guid: 0155c5d9e6acf7b4c8c5812779c67095,
        type: 3}
      propertyPath: PropertyIdSerializedGuid.Array.data[9]
      value: 37
      objectReference: {fileID: 0}
    - target: {fileID: 7461897258252223846, guid: 0155c5d9e6acf7b4c8c5812779c67095,
        type: 3}
      propertyPath: PropertyIdSerializedGuid.Array.data[10]
      value: 205
      objectReference: {fileID: 0}
    - target: {fileID: 7461897258252223846, guid: 0155c5d9e6acf7b4c8c5812779c67095,
        type: 3}
      propertyPath: PropertyIdSerializedGuid.Array.data[11]
      value: 117
      objectReference: {fileID: 0}
    - target: {fileID: 7461897258252223846, guid: 0155c5d9e6acf7b4c8c5812779c67095,
        type: 3}
      propertyPath: PropertyIdSerializedGuid.Array.data[12]
      value: 50
      objectReference: {fileID: 0}
    - target: {fileID: 7461897258252223846, guid: 0155c5d9e6acf7b4c8c5812779c67095,
        type: 3}
      propertyPath: PropertyIdSerializedGuid.Array.data[13]
      value: 223
      objectReference: {fileID: 0}
    - target: {fileID: 7461897258252223846, guid: 0155c5d9e6acf7b4c8c5812779c67095,
        type: 3}
      propertyPath: PropertyIdSerializedGuid.Array.data[14]
      value: 74
      objectReference: {fileID: 0}
    - target: {fileID: 7461897258252223846, guid: 0155c5d9e6acf7b4c8c5812779c67095,
        type: 3}
      propertyPath: PropertyIdSerializedGuid.Array.data[15]
      value: 18
      objectReference: {fileID: 0}
    m_RemovedComponents: []
  m_SourcePrefab: {fileID: 100100000, guid: 0155c5d9e6acf7b4c8c5812779c67095, type: 3}
--- !u!224 &1545985185530672632 stripped
RectTransform:
  m_CorrespondingSourceObject: {fileID: 3681392156760361645, guid: 0155c5d9e6acf7b4c8c5812779c67095,
    type: 3}
  m_PrefabInstance: {fileID: 2765949028877090645}
  m_PrefabAsset: {fileID: 0}
--- !u!1001 &2765949030068595944
PrefabInstance:
  m_ObjectHideFlags: 0
  serializedVersion: 2
  m_Modification:
    m_TransformParent: {fileID: 2765949028615636468}
    m_Modifications:
    - target: {fileID: 3353313277675267151, guid: 33857862b9b36974b8c7e7cd21e64894,
        type: 3}
      propertyPath: m_Name
      value: Card @ 512x512 - Rounded - Out
      objectReference: {fileID: 0}
    - target: {fileID: 1898205443461623656, guid: 33857862b9b36974b8c7e7cd21e64894,
        type: 3}
      propertyPath: m_LocalPosition.x
      value: 0
      objectReference: {fileID: 0}
    - target: {fileID: 1898205443461623656, guid: 33857862b9b36974b8c7e7cd21e64894,
        type: 3}
      propertyPath: m_LocalPosition.y
      value: 0
      objectReference: {fileID: 0}
    - target: {fileID: 1898205443461623656, guid: 33857862b9b36974b8c7e7cd21e64894,
        type: 3}
      propertyPath: m_LocalPosition.z
      value: 0
      objectReference: {fileID: 0}
    - target: {fileID: 1898205443461623656, guid: 33857862b9b36974b8c7e7cd21e64894,
        type: 3}
      propertyPath: m_LocalRotation.x
      value: 0
      objectReference: {fileID: 0}
    - target: {fileID: 1898205443461623656, guid: 33857862b9b36974b8c7e7cd21e64894,
        type: 3}
      propertyPath: m_LocalRotation.y
      value: 0
      objectReference: {fileID: 0}
    - target: {fileID: 1898205443461623656, guid: 33857862b9b36974b8c7e7cd21e64894,
        type: 3}
      propertyPath: m_LocalRotation.z
      value: 0
      objectReference: {fileID: 0}
    - target: {fileID: 1898205443461623656, guid: 33857862b9b36974b8c7e7cd21e64894,
        type: 3}
      propertyPath: m_LocalRotation.w
      value: 1
      objectReference: {fileID: 0}
    - target: {fileID: 1898205443461623656, guid: 33857862b9b36974b8c7e7cd21e64894,
        type: 3}
      propertyPath: m_RootOrder
      value: 0
      objectReference: {fileID: 0}
    - target: {fileID: 1898205443461623656, guid: 33857862b9b36974b8c7e7cd21e64894,
        type: 3}
      propertyPath: m_LocalEulerAnglesHint.x
      value: 0
      objectReference: {fileID: 0}
    - target: {fileID: 1898205443461623656, guid: 33857862b9b36974b8c7e7cd21e64894,
        type: 3}
      propertyPath: m_LocalEulerAnglesHint.y
      value: 0
      objectReference: {fileID: 0}
    - target: {fileID: 1898205443461623656, guid: 33857862b9b36974b8c7e7cd21e64894,
        type: 3}
      propertyPath: m_LocalEulerAnglesHint.z
      value: 0
      objectReference: {fileID: 0}
    - target: {fileID: 1898205443461623656, guid: 33857862b9b36974b8c7e7cd21e64894,
        type: 3}
      propertyPath: m_AnchoredPosition.x
      value: 0
      objectReference: {fileID: 0}
    - target: {fileID: 1898205443461623656, guid: 33857862b9b36974b8c7e7cd21e64894,
        type: 3}
      propertyPath: m_AnchoredPosition.y
      value: 0
      objectReference: {fileID: 0}
    - target: {fileID: 1898205443461623656, guid: 33857862b9b36974b8c7e7cd21e64894,
        type: 3}
      propertyPath: m_SizeDelta.x
      value: 512
      objectReference: {fileID: 0}
    - target: {fileID: 1898205443461623656, guid: 33857862b9b36974b8c7e7cd21e64894,
        type: 3}
      propertyPath: m_SizeDelta.y
      value: 768
      objectReference: {fileID: 0}
    - target: {fileID: 1898205443461623656, guid: 33857862b9b36974b8c7e7cd21e64894,
        type: 3}
      propertyPath: m_AnchorMin.x
      value: 0.5
      objectReference: {fileID: 0}
    - target: {fileID: 1898205443461623656, guid: 33857862b9b36974b8c7e7cd21e64894,
        type: 3}
      propertyPath: m_AnchorMin.y
      value: 0.5
      objectReference: {fileID: 0}
    - target: {fileID: 1898205443461623656, guid: 33857862b9b36974b8c7e7cd21e64894,
        type: 3}
      propertyPath: m_AnchorMax.x
      value: 0.5
      objectReference: {fileID: 0}
    - target: {fileID: 1898205443461623656, guid: 33857862b9b36974b8c7e7cd21e64894,
        type: 3}
      propertyPath: m_AnchorMax.y
      value: 0.5
      objectReference: {fileID: 0}
    - target: {fileID: 1898205443461623656, guid: 33857862b9b36974b8c7e7cd21e64894,
        type: 3}
      propertyPath: m_Pivot.x
      value: 0.5
      objectReference: {fileID: 0}
    - target: {fileID: 1898205443461623656, guid: 33857862b9b36974b8c7e7cd21e64894,
        type: 3}
      propertyPath: m_Pivot.y
      value: 0.5
      objectReference: {fileID: 0}
    m_RemovedComponents: []
  m_SourcePrefab: {fileID: 100100000, guid: 33857862b9b36974b8c7e7cd21e64894, type: 3}
--- !u!224 &4338470812713288576 stripped
RectTransform:
  m_CorrespondingSourceObject: {fileID: 1898205443461623656, guid: 33857862b9b36974b8c7e7cd21e64894,
    type: 3}
  m_PrefabInstance: {fileID: 2765949030068595944}
  m_PrefabAsset: {fileID: 0}
--- !u!1 &4283576748108830426 stripped
GameObject:
  m_CorrespondingSourceObject: {fileID: 2094399946474486322, guid: 33857862b9b36974b8c7e7cd21e64894,
    type: 3}
  m_PrefabInstance: {fileID: 2765949030068595944}
  m_PrefabAsset: {fileID: 0}
--- !u!224 &1725470780467581657 stripped
RectTransform:
  m_CorrespondingSourceObject: {fileID: 3571501240183766577, guid: 33857862b9b36974b8c7e7cd21e64894,
    type: 3}
  m_PrefabInstance: {fileID: 2765949030068595944}
  m_PrefabAsset: {fileID: 0}
